{
  "global": {
    "template": {
      "test": ""
    },
    "source": {
      "directory": "C:\\Users\\roger\\Documents\\Projects\\maxlib-hub\\csharp\\src\\maxlib\\",
      "ext": ".cs"
    },
    "out": {
      "directory": "C:\\Users\\roger\\Documents\\Projects\\maxlib-hub\\site\\_docs\\apidocs\\csharp\\"
    },
    "TOC": {
      "name": "csharpapidocs"
    },
    "ignore": {
      "access": [ "private", "internal" ]
    },
    "indexName": "Max C#",
    "writeDocs": true
  },
  "docitem": {
    "baseURL": "/docs/apidocs/csharp/"
  }
}